{
  "cordova-plugin-whitelist": {
    "source": {
      "type": "registry",
      "id": "cordova-plugin-whitelist@^1.3.3"
    },
    "is_top_level": true,
    "variables": {}
  },
  "cordova-plugin-device": {
    "source": {
      "type": "registry",
      "id": "cordova-plugin-device"
    },
    "is_top_level": true,
    "variables": {}
  },
  "cordova-plugin-dialogs": {
    "source": {
      "type": "registry",
      "id": "cordova-plugin-dialogs"
    },
    "is_top_level": true,
    "variables": {}
  },
  "cordova-plugin-google-analytics": {
    "source": {
      "type": "registry",
      "id": "cordova-plugin-google-analytics"
    },
    "is_top_level": true,
    "variables": {}
  },
  "cordova-plugin-inappbrowser": {
    "source": {
      "type": "registry",
      "id": "cordova-plugin-inappbrowser@2.0.1"
    },
    "is_top_level": true,
    "variables": {}
  },
  "cordova-plugin-network-information": {
    "source": {
      "type": "registry",
      "id": "cordova-plugin-network-information"
    },
    "is_top_level": true,
    "variables": {}
  },
  "cordova-plugin-screen-orientation": {
    "source": {
      "type": "registry",
      "id": "cordova-plugin-screen-orientation"
    },
    "is_top_level": true,
    "variables": {}
  },
  "es6-promise-plugin": {
    "source": {
      "type": "registry",
      "id": "es6-promise-plugin@^4.1.0"
    },
    "is_top_level": false,
    "variables": {}
  },
  "cordova-plugin-splashscreen": {
    "source": {
      "type": "registry",
      "id": "cordova-plugin-splashscreen@5.0.1"
    },
    "is_top_level": true,
    "variables": {}
  },
  "cordova-plugin-vibration": {
    "source": {
      "type": "registry",
      "id": "cordova-plugin-vibration"
    },
    "is_top_level": true,
    "variables": {}
  },
  "cordova-plugin-x-socialsharing": {
    "source": {
      "type": "registry",
      "id": "cordova-plugin-x-socialsharing"
    },
    "is_top_level": true,
    "variables": {}
  },
  "cordova-plugin-admobpro": {
    "source": {
      "type": "registry",
      "id": "cordova-plugin-admobpro"
    },
    "is_top_level": true,
    "variables": {}
  },
  "cordova-plugin-extension": {
    "source": {
      "type": "registry",
      "id": "cordova-plugin-extension"
    },
    "is_top_level": false,
    "variables": {}
  },
  "cordova-plugin-buildinfo": {
    "source": {
      "type": "registry",
      "id": "cordova-plugin-buildinfo@2.0.1"
    },
    "is_top_level": true,
    "variables": {}
  },
  "cordova-universal-links-plugin": {
    "source": {
      "type": "registry",
      "id": "cordova-universal-links-plugin"
    },
    "is_top_level": true,
    "variables": {}
  },
  "cordova-plugin-browsertab": {
    "source": {
      "type": "registry",
      "id": "cordova-plugin-browsertab"
    },
    "is_top_level": true,
    "variables": {}
  },
  "cordova-plugin-compat": {
    "source": {
      "type": "registry",
      "id": "cordova-plugin-compat@^1.0.0"
    },
    "is_top_level": false,
    "variables": {}
  },
  "cordova-plugin-customurlscheme": {
    "source": {
      "type": "registry",
      "id": "cordova-plugin-customurlscheme"
    },
    "is_top_level": true,
    "variables": {
      "URL_SCHEME": "com.lsc.ar.caba.villamalcolm"
    }
  },
  "cordova-plugin-firebase": {
    "source": {
      "type": "registry",
      "id": "cordova-plugin-firebase@0.1.25"
    },
    "is_top_level": true,
    "variables": {}
  }
}