{
  "prepare_queue": {
    "installed": [],
    "uninstalled": []
  },
  "config_munge": {
    "files": {}
  },
  "installed_plugins": {
    "cordova-plugin-whitelist": {
      "PACKAGE_NAME": "com.lsc.ar.caba.villamalcolm"
    },
    "cordova-plugin-device": {
      "PACKAGE_NAME": "com.lsc.ar.caba.villamalcolm"
    },
    "cordova-plugin-dialogs": {
      "PACKAGE_NAME": "com.lsc.ar.caba.villamalcolm"
    },
    "cordova-plugin-google-analytics": {
      "PACKAGE_NAME": "com.lsc.ar.caba.villamalcolm"
    },
    "cordova-plugin-inappbrowser": {
      "PACKAGE_NAME": "com.lsc.ar.caba.villamalcolm"
    },
    "cordova-plugin-network-information": {
      "PACKAGE_NAME": "com.lsc.ar.caba.villamalcolm"
    },
    "cordova-plugin-screen-orientation": {
      "PACKAGE_NAME": "com.lsc.ar.caba.villamalcolm"
    },
    "cordova-plugin-splashscreen": {
      "PACKAGE_NAME": "com.lsc.ar.caba.villamalcolm"
    },
    "cordova-plugin-vibration": {
      "PACKAGE_NAME": "com.lsc.ar.caba.villamalcolm"
    },
    "cordova-plugin-x-socialsharing": {
      "PACKAGE_NAME": "com.lsc.ar.caba.villamalcolm"
    },
    "cordova-plugin-admobpro": {
      "PACKAGE_NAME": "com.lsc.ar.caba.villamalcolm"
    },
    "cordova-plugin-buildinfo": {
      "PACKAGE_NAME": "com.lsc.ar.caba.villamalcolm"
    },
    "cordova-universal-links-plugin": {
      "PACKAGE_NAME": "com.lsc.ar.caba.villamalcolm"
    },
    "cordova-plugin-browsertab": {
      "PACKAGE_NAME": "com.lsc.ar.caba.villamalcolm"
    },
    "cordova-plugin-customurlscheme": {
      "URL_SCHEME": "com.lsc.ar.caba.villamalcolm",
      "PACKAGE_NAME": "com.lsc.ar.caba.villamalcolm"
    },
    "cordova-plugin-firebase": {
      "PACKAGE_NAME": "com.lsc.ar.caba.villamalcolm"
    }
  },
  "dependent_plugins": {
    "es6-promise-plugin": {
      "PACKAGE_NAME": "com.lsc.ar.caba.villamalcolm"
    },
    "cordova-plugin-extension": {
      "PACKAGE_NAME": "com.lsc.ar.caba.villamalcolm"
    },
    "cordova-plugin-compat": {
      "PACKAGE_NAME": "com.lsc.ar.caba.villamalcolm"
    }
  }
}